{
    "data" : {
        "content" : [
                     {
                     "itemNo" : "ROC00046",
                     "upcCode" : "4015630004690",
                     "id" : 3,
                     "inStock" : true,
                     "notActive" : false,
                     "desc" : "Accutrend - BM Lactate"
                     },
                     {
                     "itemNo" : "SOL00018",
                     "upcCode" : "673088011932",
                     "id" : 4,
                     "inStock" : true,
                     "notActive" : false,
                     "desc" : "Dansko Pro Oiled Full Grain Ebony Size 37"
                     },
                     {
                     "itemNo" : "SPT00185",
                     "upcCode" : "",
                     "id" : 18,
                     "inStock" : true,
                     "notActive" : false,
                     "desc" : "Spirit Sphygmomanometer Standard Cuff"
                     },
                     {
                     "itemNo" : "SPT00186",
                     "upcCode" : "",
                     "id" : 19,
                     "inStock" : true,
                     "notActive" : false,
                     "desc" : "Spirit Sphygmomanometer Bladderless Cuff 2 Tube Adult"
                     },
                     {
                     "itemNo" : "SPT00187",
                     "upcCode" : "",
                     "id" : 20,
                     "inStock" : true,
                     "notActive" : false,
                     "desc" : "Spirit Sphygmomanometer Bladderless Cuff 2 Tube Child"
                     },
                     {
                     "itemNo" : "SPT00188",
                     "upcCode" : "",
                     "id" : 21,
                     "inStock" : true,
                     "notActive" : false,
                     "desc" : "Spirit Sphygmomanometer Bladderless Cuff 2 Tube Infant"
                     },
                     {
                     "itemNo" : "TRM00208",
                     "upcCode" : "707387763091",
                     "id" : 25,
                     "inStock" : true,
                     "notActive" : false,
                     "desc" : "Littmann Stethoscope Master Cardiology 2178 Caribbean Blue"
                     },
                     {
                     "itemNo" : "LDR00078",
                     "upcCode" : "M3870A",
                     "id" : 26,
                     "inStock" : true,
                     "notActive" : false,
                     "desc" : "Laerdal FR2 Pediatric Attenuated Defib Electrode Pads"
                     },
                     {
                     "itemNo" : "AST00008",
                     "upcCode" : "6941900600089",
                     "id" : 27,
                     "inStock" : true,
                     "notActive" : false,
                     "desc" : "Prince 100F Hand Held Pulse Oximeter"
                     },
                     {
                     "itemNo" : "ITM00001",
                     "upcCode" : "9327868008667",
                     "id" : 28,
                     "inStock" : true,
                     "notActive" : false,
                     "desc" : "Compact Single Mosquito Net (Permanet Treated) Each"
                     }
                     ],
        "metadata" : {
            "number" : 0,
            "numberOfElements" : 10,
            "totalPages" : 3502,
            "size" : 10,
            "last" : false,
            "totalElements" : 35019,
            "first" : true
        }
    },
    "responseCode" : 200
}