{
    "data": {
        "content": [
                    {
                    "currency": "AUD",
                    "name": "Mt Gambier & Districts Health Servi",
                    "id": 1,
                    "address1": "Wehl Street North",
                    "address2": "",
                    "address3": "",
                    "code": "C00000001",
                    "group": "ACC",
                    "address4": "",
                    "priceCode": "T10",
                    "email": "CHSAMtGambierEFT@sharedservices.sa.gov.au",
                    "status": "1",
                    "taxGroup": "AUNAT"
                    },
                    {
                    "currency": "AUD",
                    "name": "4 Nurses",
                    "id": 2,
                    "address1": "",
                    "address2": "",
                    "address3": "",
                    "code": "C00000002",
                    "group": "ACC",
                    "address4": "",
                    "priceCode": "T10",
                    "email": "",
                    "status": "0",
                    "taxGroup": "AUNAT"
                    },
                    {
                    "currency": "AUD",
                    "name": "Anglicare Aged Care",
                    "id": 3,
                    "address1": "Dutton Court",
                    "address2": "23 Catalina Road",
                    "address3": "",
                    "code": "C00000003",
                    "group": "ACC",
                    "address4": "",
                    "priceCode": "T10",
                    "email": "",
                    "status": "0",
                    "taxGroup": "AUNAT"
                    },
                    {
                    "currency": "AUD",
                    "name": "Ananda Aged Care",
                    "id": 4,
                    "address1": "95-97 Awoonga Rd",
                    "address2": "",
                    "address3": "",
                    "code": "C00000004",
                    "group": "ACC",
                    "address4": "",
                    "priceCode": "T10",
                    "email": "",
                    "status": "0",
                    "taxGroup": "AUNAT"
                    },
                    {
                    "currency": "AUD",
                    "name": "AACAP 2011 Department of Defence",
                    "id": 5,
                    "address1": "Att Karla Strong",
                    "address2": "",
                    "address3": "",
                    "code": "C00000005",
                    "group": "ACC",
                    "address4": "",
                    "priceCode": "T10",
                    "email": "",
                    "status": "0",
                    "taxGroup": "AUNAT"
                    },
                    {
                    "currency": "AUD",
                    "name": "Amada Anavic Plc",
                    "id": 6,
                    "address1": "25 Roberts Road",
                    "address2": "",
                    "address3": "",
                    "code": "C00000006",
                    "group": "ACC",
                    "address4": "",
                    "priceCode": "T10",
                    "email": "customerservice@amada-amavic.com.au",
                    "status": "0",
                    "taxGroup": "AUNAT"
                    },
                    {
                    "currency": "AUD",
                    "name": "Abbott",
                    "id": 7,
                    "address1": "32 -34 Lord Street",
                    "address2": "",
                    "address3": "",
                    "code": "C00000007",
                    "group": "ACC",
                    "address4": "",
                    "priceCode": "T10",
                    "email": "",
                    "status": "0",
                    "taxGroup": "AUNAT"
                    },
                    {
                    "currency": "AUD",
                    "name": "Accidental Health & Safety",
                    "id": 8,
                    "address1": "PO Box 2023",
                    "address2": "",
                    "address3": "",
                    "code": "C00000008",
                    "group": "ACC",
                    "address4": "",
                    "priceCode": "T10",
                    "email": "",
                    "status": "0",
                    "taxGroup": "AUNAT"
                    },
                    {
                    "currency": "AUD",
                    "name": "Accuweigh",
                    "id": 9,
                    "address1": "20 Yiannis Crt",
                    "address2": "",
                    "address3": "",
                    "code": "C00000009",
                    "group": "ACC",
                    "address4": "",
                    "priceCode": "T10",
                    "email": "",
                    "status": "1",
                    "taxGroup": "AUNAT"
                    },
                    {
                    "currency": "AUD",
                    "name": "Adelaide Community Healthcare Allia",
                    "id": 10,
                    "address1": "17 Alexander Avenue",
                    "address2": "",
                    "address3": "",
                    "code": "C00000010",
                    "group": "ACC",
                    "address4": "",
                    "priceCode": "T10",
                    "email": "ap.callcentre@healthscope.com.au",
                    "status": "0",
                    "taxGroup": "AUNAT"
                    }
                    ],
        "metadata": {
            "number": 0,
            "numberOfElements": 10,
            "totalPages": 6736,
            "size": 10,
            "last": false,
            "totalElements": 67360,
            "first": true
        }
    },
    "responseCode": 200
}